{
    "cordova-plugin-device": {
        "source": {
            "type": "registry",
            "id": "cordova-plugin-device"
        },
        "is_top_level": true,
        "variables": {}
    },
    "cordova-plugin-console": {
        "source": {
            "type": "registry",
            "id": "cordova-plugin-console"
        },
        "is_top_level": true,
        "variables": {}
    },
    "cordova-plugin-whitelist": {
        "source": {
            "type": "registry",
            "id": "cordova-plugin-whitelist"
        },
        "is_top_level": true,
        "variables": {}
    },
    "cordova-plugin-splashscreen": {
        "source": {
            "type": "registry",
            "id": "cordova-plugin-splashscreen"
        },
        "is_top_level": true,
        "variables": {}
    },
    "cordova-plugin-statusbar": {
        "source": {
            "type": "registry",
            "id": "cordova-plugin-statusbar"
        },
        "is_top_level": true,
        "variables": {}
    },
    "ionic-plugin-keyboard": {
        "source": {
            "type": "registry",
            "id": "ionic-plugin-keyboard"
        },
        "is_top_level": true,
        "variables": {}
    },
    "com.telerik.plugins.nativepagetransitions": {
        "source": {
            "type": "git",
            "url": "https://github.com/Telerik-Verified-Plugins/NativePageTransitions",
            "subdir": ".",
            "ref": "0.6.2"
        },
        "is_top_level": true,
        "variables": {}
    },
    "org.apache.cordova.inappbrowser": {
        "source": {
            "type": "registry",
            "id": "org.apache.cordova.inappbrowser"
        },
        "is_top_level": true,
        "variables": {}
    }
}